{
  "General": {
    "Max Ammo": 15,
    "Reload Speed": 1
  },
  "Projectile": {
    "Damage": 10.0,
    "Damage Falloff": true,
    "Gravity": false,
    "Ticks Before Removed": 10,
    "Reduce Damage If Not Zoomed": false,
    "Size": 0.2,
    "Speed": 10.0
  }
}